{
    "file_name": "data.csv", 
    "file_type": "asmt_data", 
    "summative_period": "Spring", 
    "test_code": "d0f62e52-5f1d-475c-8e44-84fbe4cf8b5c", 
    "test_levels": [
        {
            "test_perf_lvl_cutpoint_label": "LEVEL_1", 
            "test_perf_lvl_cutpoint_low": 0, 
            "test_perf_lvl_cutpoint_upper": 1999, 
            "test_perf_lvl_id": "1"
        }, 
        {
            "test_perf_lvl_cutpoint_label": "LEVEL_2", 
            "test_perf_lvl_cutpoint_low": 2000, 
            "test_perf_lvl_cutpoint_upper": 3999, 
            "test_perf_lvl_id": "2"
        }, 
        {
            "test_perf_lvl_cutpoint_label": "LEVEL_3", 
            "test_perf_lvl_cutpoint_low": 4000, 
            "test_perf_lvl_cutpoint_upper": 5999, 
            "test_perf_lvl_id": "3"
        }, 
        {
            "test_perf_lvl_cutpoint_label": "LEVEL_4", 
            "test_perf_lvl_cutpoint_low": 6000, 
            "test_perf_lvl_cutpoint_upper": 7999, 
            "test_perf_lvl_id": "4"
        }, 
        {
            "test_perf_lvl_cutpoint_label": "LEVEL_5", 
            "test_perf_lvl_cutpoint_low": 8000, 
            "test_perf_lvl_cutpoint_upper": 9999, 
            "test_perf_lvl_id": "5"
        }
    ]
}